<?xml version="1.0" encoding="utf-8"?>
<!-- Generator: Adobe Illustrator 25.0.0, SVG Export Plug-In . SVG Version: 6.00 Build 0)  -->
<svg version="1.1" id="Camada_1" xmlns="http://www.w3.org/2000/svg" xmlns:xlink="http://www.w3.org/1999/xlink" x="0px" y="0px"
	 viewBox="0 0 600 600" style="enable-background:new 0 0 600 600;" xml:space="preserve">
<g id="gravida" transform="translate(0 -32.468)">
	<g id="Grupo_127" transform="translate(8.976 32.468)">
		<g id="Grupo_126">
			<path id="Caminho_94" d="M398.83,67.19c-29.3-0.01-58.01,8.25-82.82,23.82c-4.77,2.58-40.93,23.49-35.32,61.58
				c2.52,12.4,8.22,23.93,16.53,33.47c10.05,13.56,19.63,26.54,17.02,52.78l-0.41-0.24c-14.65-7.45-32.57-2.28-41.01,11.83
				c-7.41-7.16-17.34-11.11-27.64-10.99c-0.37-4.16-0.34-8.35,0.1-12.5c0.65-6.34,0.54-12.74-0.34-19.06
				c-2.48-17.16-12.43-32.34-27.18-41.46c-19.23-12.04-42.67-15.36-64.49-9.14c-39.13,11.5-61.53,52.54-50.03,91.67
				c3.34,11.36,9.36,21.75,17.56,30.3c4.26,4.33,6.57,10.2,6.41,16.27c-2.31,53.87,27.11,104.11,75.22,128.46
				c20.05,10.52,42.34,16.06,64.98,16.13c13.32,0,26.57-1.97,39.32-5.86c7.11-2.17,14.04-4.89,20.71-8.16
				c28.74-14.14,47.05-43.27,47.33-75.3c5.07,0.94,10.3,0.6,15.21-0.99c16.36-5.48,25.3-23.06,20.09-39.51l-7.99-25.67
				c-8.56-27.47-37.78-42.8-65.25-34.23c-1.14,0.35-2.26,0.75-3.38,1.18c6.51-27.59-0.73-56.62-19.44-77.92
				c-6.16-6.86-10.51-15.15-12.68-24.11c-3.69-25.07,23.57-39.66,24.7-40.25c0.27-0.14,0.53-0.29,0.79-0.45
				c21.56-13.61,46.53-20.83,72.03-20.82c77.21,1.16,138.92,64.58,137.97,141.79c0,85.81-67.36,157.9-123.88,203.28
				c-37.86,30.04-78.72,56.09-121.93,77.75c-40.83-20.47-79.57-44.85-115.69-72.81c-4.59-3.46-11.12-2.55-14.58,2.04
				c-3.38,4.48-2.6,10.84,1.77,14.37c38.57,30.06,80.17,56,124.13,77.4c2.77,1.28,5.96,1.28,8.73,0
				c46.31-22.55,89.99-50.13,130.26-82.25c34.62-26.89,65.02-58.81,90.19-94.7c26.24-36.52,40.81-80.12,41.82-125.08
				C558.6,141.1,487.55,68.35,398.83,67.19z M231.5,275.62c5.33-4.04,9.64-9.28,12.58-15.29c7.72-0.71,15.03,3.58,18.17,10.67
				l-4.34,8.53l-30.13-0.6c1.25-1.16,2.49-2.25,3.7-3.31L231.5,275.62z M323.02,289.4l3.47-6.8c9.71-14.28,29.16-17.98,43.44-8.27
				c5.83,3.96,10.14,9.78,12.25,16.5l7.99,25.66c1.87,5.55-1.07,11.57-6.59,13.52c-5.13,1.65-10.67-0.88-12.78-5.84l-6.08-19.56
				c-1.71-5.49-7.55-8.56-13.04-6.85s-8.56,7.55-6.85,13.04l0,0l6.25,20.07c9.57,30.11-4.38,62.69-32.78,76.53
				c-58.68,28.75-129.56,4.48-158.3-54.2c-2.39-4.89-4.45-9.93-6.15-15.1c-4.42-13.44-6.39-27.56-5.81-41.7
				c0.4-11.76-4.01-23.18-12.21-31.62c-5.96-6.18-10.31-13.72-12.68-21.97c-8.03-28.03,8.04-57.29,36-65.56
				c16-4.59,33.2-2.18,47.33,6.63c9.63,5.83,16.18,15.64,17.87,26.77c0.68,4.84,0.75,9.74,0.22,14.6
				c-0.72,7.15-0.53,14.36,0.57,21.47c0.85,5.85-0.3,7.05-7.37,13.26c-1.94,1.69-4.15,3.64-6.43,5.92l-0.08,0.08l-0.15,0.08
				c-7.76,7.52-7.96,19.91-0.44,27.68c3.59,3.7,8.49,5.84,13.64,5.95l35.75,0.71c6.42,0.12,12.34-3.42,15.26-9.14l15.07-29.58
				c2.61-5.13,8.89-7.18,14.02-4.57c5.13,2.61,7.18,8.89,4.57,14.02l0,0l-0.53,1.04c-1.73,2.73-3.21,5.62-4.4,8.63l-10.14,19.89
				c-4.66,9.02-12.74,15.8-22.44,18.82c-3.83,1.2-7.82,1.77-11.83,1.69l-45.05-0.9c-5.75-0.12-10.51,4.45-10.62,10.2
				c-0.12,5.75,4.45,10.51,10.2,10.62l45.05,0.9c6.24,0.12,12.45-0.76,18.41-2.62c10.44-3.26,19.77-9.34,26.96-17.58l7.34,23.57
				c1.71,5.49,7.55,8.56,13.04,6.85s8.56-7.55,6.85-13.04l-9.3-29.8C320.47,302.87,320.65,295.84,323.02,289.4z"/>
		</g>
	</g>
	<g id="Grupo_129" transform="translate(12.331 73.127)">
		<g id="Grupo_128">
			<path id="Caminho_95" d="M142.93,373.09l-0.3-0.27c-4.28-3.84-10.87-3.49-14.71,0.79s-3.49,10.87,0.79,14.71l0.3,0.27
				c4.28,3.84,10.87,3.49,14.71-0.79C147.56,383.52,147.21,376.93,142.93,373.09L142.93,373.09z"/>
		</g>
	</g>
	<g id="Grupo_131" transform="translate(0 32.468)">
		<g id="Grupo_130">
			<path id="Caminho_96" d="M275.31,91.22c-24.88-15.7-53.7-24.04-83.13-24.04C103.47,68.35,32.43,141.1,33.37,229.82
				c0,56.62,25.47,113.04,75.7,167.66c3.9,4.23,10.48,4.51,14.72,0.61c4.23-3.9,4.51-10.48,0.61-14.72l0,0
				c-46.58-50.65-70.2-102.32-70.2-153.56c-0.94-77.22,60.78-140.64,137.99-141.79c25.49,0.01,50.47,7.23,72.02,20.85
				c4.87,3.07,11.3,1.61,14.36-3.26c3.07-4.87,1.61-11.3-3.26-14.36l0,0L275.31,91.22z"/>
		</g>
	</g>
	<g id="Grupo_133" transform="translate(43.074 38.326)">
		<g id="Grupo_132">
			<path id="Caminho_97" d="M364.74,110.82c-5.75,0-10.42,4.66-10.42,10.42c0,5.75,4.66,10.42,10.42,10.42h0.06
				c5.75-0.02,10.4-4.69,10.39-10.45C375.17,115.45,370.5,110.8,364.74,110.82z"/>
		</g>
	</g>
	<g id="Grupo_135" transform="translate(47.23 39.095)">
		<g id="Grupo_134" transform="translate(0 0)">
			<path id="Caminho_98" d="M451.03,158.14c-12.64-18.54-30.62-32.79-51.55-40.88c-5.37-2.06-11.39,0.62-13.45,5.98
				c-2.06,5.37,0.62,11.39,5.98,13.45l0,0c35.36,14.11,58.49,48.42,58.31,86.49c0,5.75,4.66,10.42,10.42,10.42
				c5.75,0,10.42-4.66,10.42-10.42C471.22,199.96,464.2,177.27,451.03,158.14z"/>
		</g>
	</g>
</g>
</svg>
